<?xml version="1.0" encoding="UTF-8" standalone="no"?>
<!-- Created with Inkscape (http://www.inkscape.org/) -->

<svg
   xmlns:dc="http://purl.org/dc/elements/1.1/"
   xmlns:cc="http://creativecommons.org/ns#"
   xmlns:rdf="http://www.w3.org/1999/02/22-rdf-syntax-ns#"
   xmlns:svg="http://www.w3.org/2000/svg"
   xmlns="http://www.w3.org/2000/svg"
   xmlns:sodipodi="http://sodipodi.sourceforge.net/DTD/sodipodi-0.dtd"
   xmlns:inkscape="http://www.inkscape.org/namespaces/inkscape"
   id="svg4874"
   height="96"
   viewBox="0 0 96 96.000001"
   width="96"
   version="1.1"
   inkscape:version="0.91 r13725"
   sodipodi:docname="instantfx-symbolic.svg">
  <defs
     id="defs10" />
  <sodipodi:namedview
     pagecolor="#ffffff"
     bordercolor="#666666"
     borderopacity="1"
     objecttolerance="10"
     gridtolerance="10"
     guidetolerance="10"
     inkscape:pageopacity="0"
     inkscape:pageshadow="2"
     inkscape:window-width="1635"
     inkscape:window-height="1026"
     id="namedview8"
     showgrid="false"
     inkscape:zoom="2.4583333"
     inkscape:cx="-25.369345"
     inkscape:cy="16.183651"
     inkscape:window-x="45"
     inkscape:window-y="24"
     inkscape:window-maximized="1"
     inkscape:current-layer="svg4874" />
  <metadata
     id="metadata4879">
    <rdf:RDF>
      <cc:Work
         rdf:about="">
        <dc:format>image/svg+xml</dc:format>
        <dc:type
           rdf:resource="http://purl.org/dc/dcmitype/StillImage" />
        <dc:title></dc:title>
      </cc:Work>
    </rdf:RDF>
  </metadata>
  <rect
     x="-2.7465821e-06"
     y="-96"
     width="96"
     height="96"
     transform="matrix(0,1,-1,0,0,0)"
     style="color:#000000;fill:none"
     id="rect4782" />
  <path
     inkscape:connector-curvature="0"
     d="M 19.97698,4.0044001 C 14.94418,4.0717628 11.26338,3.8651346 8.25198,5.7886263 6.74648,6.7503715 5.55518,8.3770867 4.89648,10.408627 4.23782,12.440284 4,14.852752 4,17.898442 l 0,60.207517 c 0,3.045572 0.23782,5.455842 0.89648,7.487499 0.65866,2.03154 1.85,3.6583 3.3555,4.619999 3.011,1.923516 6.6918,1.719157 11.725,1.786543 l 0.01172,0 56.023,0 0.01172,0 c 5.0328,-0.06739 8.7136,0.136996 11.725,-1.786543 1.5055,-0.961744 2.6968,-2.588459 3.3555,-4.619999 0.65866,-2.031657 0.89648,-4.441927 0.89648,-7.487499 l 0,-60.207517 c 0,-3.045574 -0.23782,-5.458158 -0.89648,-7.489815 -0.66,-2.0366347 -1.851,-3.6622379 -3.356,-4.6244008 C 84.73692,3.8610594 81.05592,4.067155 76.02292,4 L 76.0112,4 19.9882,4 19.97648,4 Z m 0.02344,4.6313471 56,0 c 5.0383,0.068046 8.3519,0.2742686 9.8164,1.2098233 0.73364,0.4686695 1.1527,0.9875765 1.543,2.1913235 0.39025,1.203686 0.64062,3.117938 0.64062,5.861548 l 0,60.207517 c 0,2.743609 -0.25037,4.657861 -0.64062,5.861548 -0.39025,1.203688 -0.80933,1.72263 -1.543,2.191323 -1.4645,0.935577 -4.7782,1.141812 -9.8164,1.209823 l -55.977,0 -0.02344,0 c -5.0383,-0.06808 -8.3519,-0.274269 -9.8164,-1.209823 C 9.44994,85.69016 9.03278,85.171241 8.64258,83.967507 8.25233,82.76382 8,80.849568 8,78.105959 L 8,17.898442 c 0,-2.74361 0.25232,-4.657862 0.64258,-5.861548 0.39025,-1.203688 0.80738,-1.722631 1.541,-2.1913235 1.4645,-0.9355776 4.7782,-1.1418122 9.8164,-1.2098233 z"
     style="color:#000000;text-indent:0;text-decoration:none;text-decoration-line:none;text-decoration-style:solid;text-decoration-color:#000000;text-transform:none;block-progression:tb;white-space:normal;isolation:auto;mix-blend-mode:normal;solid-color:#000000;fill:#808080;color-rendering:auto;image-rendering:auto;shape-rendering:auto"
     id="path4179" />
  <path
     inkscape:connector-curvature="0"
     d="m 4,71.2831 34.055,-23.921996 2,3.0789 L 4,80 c 0,-8.7169 0,0 0,-8.7169 z"
     style="fill:#808080"
     id="path4237"
     sodipodi:nodetypes="ccccc" />
  <circle
     cx="-48"
     cy="-48"
     transform="matrix(0,-1,-1,0,0,0)"
     style="color:#000000;fill:#808080;fill-opacity:1;enable-background:accumulate"
     id="circle4409"
     r="18" />
  <circle
     id="circle4147"
     style="color:#000000;fill:#808080;fill-opacity:1;enable-background:accumulate"
     transform="matrix(0,-1,-1,0,0,0)"
     cy="-74"
     cx="-22"
     r="6" />
  <path
     inkscape:connector-curvature="0"
     d="m 16,8 0,16 4,0 0,-16 -4,0 z"
     style="color:#000000;text-indent:0;text-decoration:none;text-decoration-line:none;text-decoration-style:solid;text-decoration-color:#000000;text-transform:none;block-progression:tb;white-space:normal;isolation:auto;mix-blend-mode:normal;solid-color:#000000;fill:#808080;color-rendering:auto;image-rendering:auto;shape-rendering:auto"
     id="path4171" />
  <path
     id="path4157"
     style="color:#000000;text-indent:0;text-decoration:none;text-decoration-line:none;text-decoration-style:solid;text-decoration-color:#000000;text-transform:none;block-progression:tb;white-space:normal;isolation:auto;mix-blend-mode:normal;solid-color:#000000;fill:#808080;color-rendering:auto;image-rendering:auto;shape-rendering:auto"
     d="m 22,8 0,16 4,0 0,-16 -4,0 z"
     inkscape:connector-curvature="0" />
  <path
     inkscape:connector-curvature="0"
     d="m 28,8 0,16 4,0 0,-16 -4,0 z"
     style="color:#000000;text-indent:0;text-decoration:none;text-decoration-line:none;text-decoration-style:solid;text-decoration-color:#000000;text-transform:none;block-progression:tb;white-space:normal;isolation:auto;mix-blend-mode:normal;solid-color:#000000;fill:#808080;color-rendering:auto;image-rendering:auto;shape-rendering:auto"
     id="path4159" />
</svg>
